{"failedCount":3,"prefixedPath":"classpath:Prova_Karate\/exer1.feature","packageQualifiedName":"Prova_Karate.exer1","loopIndex":-1,"relativePath":"Prova_Karate\/exer1.feature","scenarioResults":[{"sectionIndex":0,"stepResults":[{"result":{"nanos":5023000,"millis":5.023,"status":"passed"},"step":{"background":true,"line":4,"prefix":"*","index":0,"text":"url 'https:\/\/gorest.co.in\/public-api'"},"stepLog":"23:49:11.292 karate.env system property was: null \n"},{"result":{"nanos":30577300,"millis":30.5773,"status":"passed"},"step":{"line":7,"prefix":"Given","index":0,"text":"path 'users'"}},{"result":{"nanos":263380800,"millis":263.3808,"status":"passed"},"step":{"line":8,"prefix":"And","index":1,"text":"request { data.name: 'Novo Usuário', data.gender: 'male', data.email: 'novousuario@teste.com', data.status: 'active' }"}},{"result":{"nanos":3449013800,"millis":3449.0138,"status":"passed"},"step":{"line":9,"prefix":"When","index":2,"text":"method post"},"stepLog":"23:49:13.614 request:\n1 > POST https:\/\/gorest.co.in\/public-api\/users\n1 > Content-Type: application\/json; charset=UTF-8\n1 > Content-Length: 110\n1 > Host: gorest.co.in\n1 > Connection: Keep-Alive\n1 > User-Agent: Apache-HttpClient\/4.5.13 (Java\/18.0.2)\n1 > Accept-Encoding: gzip,deflate\n{\"data.gender\":\"male\",\"data.email\":\"novousuario@teste.com\",\"data.status\":\"active\",\"data.name\":\"Novo Usuário\"}\n\n23:49:15.257 response time in milliseconds: 1632\n1 < 200\n1 < Date: Tue, 05 Dec 2023 02:49:15 GMT\n1 < Content-Type: application\/json; charset=utf-8\n1 < Transfer-Encoding: chunked\n1 < Connection: keep-alive\n1 < Cache-Control: max-age=0, private, must-revalidate\n1 < etag: W\/\"65ab5ef0fb80a32b1723c5368d8edb14\"\n1 < referrer-policy: strict-origin-when-cross-origin\n1 < vary: Origin\n1 < x-content-type-options: nosniff\n1 < x-download-options: noopen\n1 < x-frame-options: SAMEORIGIN\n1 < x-permitted-cross-domain-policies: none\n1 < x-request-id: 17f1c48d-9e95-4827-8ca9-79c224a6eb0f\n1 < x-runtime: 0.018617\n1 < x-xss-protection: 0\n1 < CF-Cache-Status: DYNAMIC\n1 < Report-To: {\"endpoints\":[{\"url\":\"https:\\\/\\\/a.nel.cloudflare.com\\\/report\\\/v3?s=xNw4a5vTLi%2Fw6d4JNVWBKWGkBpwlQ06JPxk7OJvnZa7NqCRoPLbzAlduu67Ouryq18aaqrZqRxi09ybXoYyBxslcSDfff5ppZoqua62AMCN%2FtDSfSANGkbYpXB1i1A0%3D\"}],\"group\":\"cf-nel\",\"max_age\":604800}\n1 < NEL: {\"success_fraction\":0,\"report_to\":\"cf-nel\",\"max_age\":604800}\n1 < Server: cloudflare\n1 < CF-RAY: 8308f98d0c136449-GIG\n1 < alt-svc: h3=\":443\"; ma=86400\n{\"code\":401,\"data\":{\"message\":\"Authentication failed\"},\"meta\":null}\n"},{"result":{"nanos":28302700,"millis":28.3027,"status":"passed"},"step":{"line":10,"prefix":"Then","index":3,"text":"status 200"}},{"result":{"nanos":94375300,"errorMessage":"match failed: EQUALS\n  $ | actual path does not exist (STRING:STRING)\n  '#notpresent'\n  'Novo Usuário'\n\nclasspath:Prova_Karate\/exer1.feature:11","millis":94.3753,"status":"failed"},"step":{"line":11,"prefix":"And","index":4,"text":"match $.data.name == 'Novo Usuário'"},"stepLog":"23:49:15.405 classpath:Prova_Karate\/exer1.feature:11\nAnd match $.data.name == 'Novo Usuário'\nmatch failed: EQUALS\n  $ | actual path does not exist (STRING:STRING)\n  '#notpresent'\n  'Novo Usuário'\n\nclasspath:Prova_Karate\/exer1.feature:11\n"}],"line":6,"description":"","durationMillis":3870.6729,"failed":true,"error":"match failed: EQUALS\n  $ | actual path does not exist (STRING:STRING)\n  '#notpresent'\n  'Novo Usuário'\n\nclasspath:Prova_Karate\/exer1.feature:11","executorName":"main","name":"Criar um novo usuário","startTime":1701744550213,"refId":"[1:6]","endTime":1701744555406,"exampleIndex":-1},{"sectionIndex":1,"stepResults":[{"result":{"nanos":1376600,"millis":1.3766,"status":"passed"},"step":{"background":true,"line":4,"prefix":"*","index":0,"text":"url 'https:\/\/gorest.co.in\/public-api'"},"stepLog":"23:49:15.542 karate.env system property was: null \n"},{"result":{"nanos":1620400,"millis":1.6204,"status":"passed"},"step":{"line":14,"prefix":"Given","index":0,"text":"path 'users'"}},{"result":{"nanos":581594600,"millis":581.5946,"status":"passed"},"step":{"line":15,"prefix":"When","index":1,"text":"method get"},"stepLog":"23:49:15.559 request:\n1 > GET https:\/\/gorest.co.in\/public-api\/users\n1 > Host: gorest.co.in\n1 > Connection: Keep-Alive\n1 > User-Agent: Apache-HttpClient\/4.5.13 (Java\/18.0.2)\n1 > Accept-Encoding: gzip,deflate\n\n\n23:49:16.122 response time in milliseconds: 558\n1 < 200\n1 < Date: Tue, 05 Dec 2023 02:49:16 GMT\n1 < Content-Type: application\/json; charset=utf-8\n1 < Transfer-Encoding: chunked\n1 < Connection: keep-alive\n1 < Cache-Control: max-age=0, private, must-revalidate\n1 < etag: W\/\"3a6251925a17382c1ab8cba29b8b22e7\"\n1 < referrer-policy: strict-origin-when-cross-origin\n1 < vary: Origin\n1 < x-content-type-options: nosniff\n1 < x-download-options: noopen\n1 < x-frame-options: SAMEORIGIN\n1 < x-permitted-cross-domain-policies: none\n1 < x-request-id: d98560a6-6192-429b-b640-2b96107d4d17\n1 < x-runtime: 0.047827\n1 < x-xss-protection: 0\n1 < CF-Cache-Status: DYNAMIC\n1 < Report-To: {\"endpoints\":[{\"url\":\"https:\\\/\\\/a.nel.cloudflare.com\\\/report\\\/v3?s=VVyx6Hty163mEf5l7oSYA%2BOCY9I79PouujBaBgNshexxrTjVO0%2FWE0iONjUDqAOMTckRnfk1V0L%2BTy0Szn6Wp2jgwY2j32xbuclvbe1khC24%2FZHvdOzT4nNKhkbTUuc%3D\"}],\"group\":\"cf-nel\",\"max_age\":604800}\n1 < NEL: {\"success_fraction\":0,\"report_to\":\"cf-nel\",\"max_age\":604800}\n1 < Server: cloudflare\n1 < CF-RAY: 8308f9929e2b1d4c-GIG\n1 < alt-svc: h3=\":443\"; ma=86400\n{\"code\":200,\"data\":[{\"gender\":\"male\",\"name\":\"Karthik Sethi\",\"id\":5710543,\"email\":\"karthik_sethi@stroman-rowe.test\",\"status\":\"active\"},{\"gender\":\"female\",\"name\":\"Bankimchandra Kaur\",\"id\":5710540,\"email\":\"bankimchandra_kaur@osinski-greenholt.example\",\"status\":\"active\"},{\"gender\":\"female\",\"name\":\"Chaturaanan Sharma\",\"id\":5710539,\"email\":\"chaturaanan_sharma@mueller.test\",\"status\":\"active\"},{\"gender\":\"male\",\"name\":\"Kalinda Menon\",\"id\":5710538,\"email\":\"kalinda_menon@lynch-veum.test\",\"status\":\"active\"},{\"gender\":\"female\",\"name\":\"Gaurang Khanna\",\"id\":5710537,\"email\":\"gaurang_khanna@nikolaus-donnelly.example\",\"status\":\"inactive\"},{\"gender\":\"female\",\"name\":\"Anjushree Nayar\",\"id\":5710536,\"email\":\"nayar_anjushree@damore.example\",\"status\":\"active\"},{\"gender\":\"female\",\"name\":\"Akshata Kakkar\",\"id\":5710535,\"email\":\"kakkar_akshata@rohan.example\",\"status\":\"inactive\"},{\"gender\":\"female\",\"name\":\"Rohan Johar CPA\",\"id\":5710533,\"email\":\"johar_rohan_cpa@schiller.test\",\"status\":\"inactive\"},{\"gender\":\"female\",\"name\":\"Krishnadasa Pandey\",\"id\":5710532,\"email\":\"pandey_krishnadasa@ledner-carroll.example\",\"status\":\"inactive\"},{\"gender\":\"female\",\"name\":\"Smriti Sharma II\",\"id\":5710531,\"email\":\"smriti_sharma_ii@baumbach.test\",\"status\":\"inactive\"}],\"meta\":{\"pagination\":{\"total\":2668,\"pages\":267,\"limit\":10,\"page\":1}}}\n"},{"result":{"nanos":89100,"millis":0.0891,"status":"passed"},"step":{"line":16,"prefix":"Then","index":2,"text":"status 200"}},{"result":{"nanos":0,"errorMessage":"no step-definition method match found for: match response.data.size > 0\nclasspath:Prova_Karate\/exer1.feature:17","millis":0.0,"status":"failed"},"step":{"line":17,"prefix":"And","index":3,"text":"match response.data.size > 0"},"stepLog":"23:49:16.137 classpath:Prova_Karate\/exer1.feature:17\nAnd match response.data.size > 0\nno step-definition method match found for: match response.data.size > 0\nclasspath:Prova_Karate\/exer1.feature:17\n"}],"line":13,"description":"","durationMillis":584.6807,"failed":true,"error":"no step-definition method match found for: match response.data.size > 0\nclasspath:Prova_Karate\/exer1.feature:17","executorName":"main","name":"Verificar a listagem de usuários","startTime":1701744555538,"refId":"[2:13]","endTime":1701744556138,"exampleIndex":-1},{"sectionIndex":2,"stepResults":[{"result":{"nanos":1093100,"millis":1.0931,"status":"passed"},"step":{"background":true,"line":4,"prefix":"*","index":0,"text":"url 'https:\/\/gorest.co.in\/public-api'"},"stepLog":"23:49:16.239 karate.env system property was: null \n"},{"result":{"nanos":5057800,"millis":5.0578,"status":"passed"},"step":{"line":20,"prefix":"Given","index":0,"text":"path 'users\/5710543'"}},{"result":{"nanos":2136800,"millis":2.1368,"status":"passed"},"step":{"line":21,"prefix":"And","index":1,"text":"request { data.name: 'test' }"}},{"result":{"nanos":551708300,"millis":551.7083,"status":"passed"},"step":{"line":22,"prefix":"When","index":2,"text":"method put"},"stepLog":"23:49:16.271 request:\n1 > PUT https:\/\/gorest.co.in\/public-api\/users\/5710543\n1 > Content-Type: application\/json; charset=UTF-8\n1 > Content-Length: 20\n1 > Host: gorest.co.in\n1 > Connection: Keep-Alive\n1 > User-Agent: Apache-HttpClient\/4.5.13 (Java\/18.0.2)\n1 > Accept-Encoding: gzip,deflate\n{\"data.name\":\"test\"}\n\n23:49:16.802 response time in milliseconds: 528\n1 < 200\n1 < Date: Tue, 05 Dec 2023 02:49:16 GMT\n1 < Content-Type: application\/json; charset=utf-8\n1 < Transfer-Encoding: chunked\n1 < Connection: keep-alive\n1 < Cache-Control: max-age=0, private, must-revalidate\n1 < etag: W\/\"65ab5ef0fb80a32b1723c5368d8edb14\"\n1 < referrer-policy: strict-origin-when-cross-origin\n1 < vary: Origin\n1 < x-content-type-options: nosniff\n1 < x-download-options: noopen\n1 < x-frame-options: SAMEORIGIN\n1 < x-permitted-cross-domain-policies: none\n1 < x-request-id: 585bbbac-9b07-4f72-a59f-10af0f73e924\n1 < x-runtime: 0.019692\n1 < x-xss-protection: 0\n1 < CF-Cache-Status: DYNAMIC\n1 < Report-To: {\"endpoints\":[{\"url\":\"https:\\\/\\\/a.nel.cloudflare.com\\\/report\\\/v3?s=ATSbqXXP6LB1cEZz2hvn8u8BfKKsqzBuxnPguEq%2B9O60p%2BgYHd%2FfM52B7GJPsXGnDSshZenJgZlwcpP2QVIwXR3IqRXhSOL6XMJrwc1HzUfA%2FPMFMyo7Q8ln2s5VW9Y%3D\"}],\"group\":\"cf-nel\",\"max_age\":604800}\n1 < NEL: {\"success_fraction\":0,\"report_to\":\"cf-nel\",\"max_age\":604800}\n1 < Server: cloudflare\n1 < CF-RAY: 8308f996fb85647f-GIG\n1 < alt-svc: h3=\":443\"; ma=86400\n{\"code\":401,\"data\":{\"message\":\"Authentication failed\"},\"meta\":null}\n"},{"result":{"nanos":86800,"millis":0.0868,"status":"passed"},"step":{"line":23,"prefix":"Then","index":3,"text":"status 200"}},{"result":{"nanos":4405100,"errorMessage":"match failed: EQUALS\n  $ | actual path does not exist (STRING:STRING)\n  '#notpresent'\n  'test'\n\nclasspath:Prova_Karate\/exer1.feature:24","millis":4.4051,"status":"failed"},"step":{"line":24,"prefix":"And","index":4,"text":"match response.data.name == 'test'"},"stepLog":"23:49:16.817 classpath:Prova_Karate\/exer1.feature:24\nAnd match response.data.name == 'test'\nmatch failed: EQUALS\n  $ | actual path does not exist (STRING:STRING)\n  '#notpresent'\n  'test'\n\nclasspath:Prova_Karate\/exer1.feature:24\n"}],"line":19,"description":"","durationMillis":564.4879,"failed":true,"error":"match failed: EQUALS\n  $ | actual path does not exist (STRING:STRING)\n  '#notpresent'\n  'test'\n\nclasspath:Prova_Karate\/exer1.feature:24","executorName":"main","name":"Atualizar informações de um usuário","startTime":1701744556234,"refId":"[3:19]","endTime":1701744556818,"exampleIndex":-1},{"sectionIndex":3,"stepResults":[{"result":{"nanos":904800,"millis":0.9048,"status":"passed"},"step":{"background":true,"line":4,"prefix":"*","index":0,"text":"url 'https:\/\/gorest.co.in\/public-api'"},"stepLog":"23:49:16.886 karate.env system property was: null \n"},{"result":{"nanos":2964300,"millis":2.9643,"status":"passed"},"step":{"line":27,"prefix":"Given","index":0,"text":"path 'users\/asdsadas'"}},{"result":{"nanos":527718400,"millis":527.7184,"status":"passed"},"step":{"line":28,"prefix":"When","index":1,"text":"method get"},"stepLog":"23:49:16.916 request:\n1 > GET https:\/\/gorest.co.in\/public-api\/users\/asdsadas\n1 > Host: gorest.co.in\n1 > Connection: Keep-Alive\n1 > User-Agent: Apache-HttpClient\/4.5.13 (Java\/18.0.2)\n1 > Accept-Encoding: gzip,deflate\n\n\n23:49:17.420 response time in milliseconds: 501\n1 < 200\n1 < Date: Tue, 05 Dec 2023 02:49:17 GMT\n1 < Content-Type: application\/json; charset=utf-8\n1 < Transfer-Encoding: chunked\n1 < Connection: keep-alive\n1 < Cache-Control: max-age=0, private, must-revalidate\n1 < etag: W\/\"b654e1cd0d3be5d471e57be8f71a8543\"\n1 < referrer-policy: strict-origin-when-cross-origin\n1 < vary: Origin\n1 < x-content-type-options: nosniff\n1 < x-download-options: noopen\n1 < x-frame-options: SAMEORIGIN\n1 < x-permitted-cross-domain-policies: none\n1 < x-request-id: 9a03da48-7515-45f2-be58-d0b53eeb4306\n1 < x-runtime: 0.020855\n1 < x-xss-protection: 0\n1 < CF-Cache-Status: DYNAMIC\n1 < Report-To: {\"endpoints\":[{\"url\":\"https:\\\/\\\/a.nel.cloudflare.com\\\/report\\\/v3?s=C9qFJVzb6TQM3oC3Xl58NnILhxC0UFPl%2FZFy%2FROI5zfkYaFPAkcLxj9Meb%2Bg6tcZf%2FTy4k%2F5qcK8PVEJnm7Bd%2BNljxptAHSWDURp2veBqA%2BsuGoyytw5URWj%2F0Y%2FRYU%3D\"}],\"group\":\"cf-nel\",\"max_age\":604800}\n1 < NEL: {\"success_fraction\":0,\"report_to\":\"cf-nel\",\"max_age\":604800}\n1 < Server: cloudflare\n1 < CF-RAY: 8308f99aedbd6d6a-GIG\n1 < alt-svc: h3=\":443\"; ma=86400\n{\"code\":404,\"data\":{\"message\":\"Resource not found\"},\"meta\":null}\n"},{"result":{"nanos":56900,"millis":0.0569,"status":"passed"},"step":{"line":29,"prefix":"Then","index":2,"text":"status 200"}},{"result":{"nanos":3530900,"millis":3.5309,"status":"passed"},"step":{"line":30,"prefix":"And","index":3,"text":"match response.data.message == 'Resource not found'"}}],"executorName":"main","line":26,"name":"Buscar por um usuário inexistente","description":"","durationMillis":535.1753,"startTime":1701744556880,"failed":false,"refId":"[4:26]","endTime":1701744557430,"exampleIndex":-1},{"sectionIndex":4,"stepResults":[{"result":{"nanos":636800,"millis":0.6368,"status":"passed"},"step":{"background":true,"line":4,"prefix":"*","index":0,"text":"url 'https:\/\/gorest.co.in\/public-api'"},"stepLog":"23:49:17.478 karate.env system property was: null \n"},{"result":{"nanos":5952400,"millis":5.9524,"status":"passed"},"step":{"line":33,"prefix":"Given","index":0,"text":"path 'users\/5710538'"}},{"result":{"nanos":545246800,"millis":545.2468,"status":"passed"},"step":{"line":34,"prefix":"When","index":1,"text":"method delete"},"stepLog":"23:49:17.497 request:\n1 > DELETE https:\/\/gorest.co.in\/public-api\/users\/5710538\n1 > Host: gorest.co.in\n1 > Connection: Keep-Alive\n1 > User-Agent: Apache-HttpClient\/4.5.13 (Java\/18.0.2)\n1 > Accept-Encoding: gzip,deflate\n\n\n23:49:18.032 response time in milliseconds: 533\n1 < 200\n1 < Date: Tue, 05 Dec 2023 02:49:18 GMT\n1 < Content-Type: application\/json; charset=utf-8\n1 < Transfer-Encoding: chunked\n1 < Connection: keep-alive\n1 < Cache-Control: max-age=0, private, must-revalidate\n1 < etag: W\/\"65ab5ef0fb80a32b1723c5368d8edb14\"\n1 < referrer-policy: strict-origin-when-cross-origin\n1 < vary: Origin\n1 < x-content-type-options: nosniff\n1 < x-download-options: noopen\n1 < x-frame-options: SAMEORIGIN\n1 < x-permitted-cross-domain-policies: none\n1 < x-request-id: b28503d3-b648-4b99-8f4b-849e81cbe3d9\n1 < x-runtime: 0.021843\n1 < x-xss-protection: 0\n1 < CF-Cache-Status: DYNAMIC\n1 < Report-To: {\"endpoints\":[{\"url\":\"https:\\\/\\\/a.nel.cloudflare.com\\\/report\\\/v3?s=gAwBpvO6OV5Ytqr8GfJHGClaiwhJoI8IVDP9bAd2oqre0t70vqus89sVfuKvGj44l6BbNwVuYknjSKxPv7sRdunAdb3QNCX9DiadyfBBuJx10X0dew1S5QLUAjSe6Dw%3D\"}],\"group\":\"cf-nel\",\"max_age\":604800}\n1 < NEL: {\"success_fraction\":0,\"report_to\":\"cf-nel\",\"max_age\":604800}\n1 < Server: cloudflare\n1 < CF-RAY: 8308f99e9d4c6d72-GIG\n1 < alt-svc: h3=\":443\"; ma=86400\n{\"code\":401,\"data\":{\"message\":\"Authentication failed\"},\"meta\":null}\n"},{"result":{"nanos":62000,"millis":0.062,"status":"passed"},"step":{"line":35,"prefix":"Then","index":2,"text":"status 200"}}],"executorName":"main","line":32,"name":"Excluir um usuário","description":"","durationMillis":551.898,"startTime":1701744557470,"failed":false,"refId":"[5:32]","endTime":1701744558039,"exampleIndex":-1}],"callDepth":0,"name":"Teste de Criar Usuário","description":"","resultDate":"2023-12-04 11:49:18 PM","durationMillis":6106.9148,"passedCount":2}